%YAML 1.1
%TAG !u! tag:unity3d.com,2011:
--- !u!114 &11400000
MonoBehaviour:
  m_ObjectHideFlags: 0
  m_PrefabParentObject: {fileID: 0}
  m_PrefabInternal: {fileID: 0}
  m_GameObject: {fileID: 0}
  m_Enabled: 1
  m_EditorHideFlags: 0
  m_Script: {fileID: 11500000, guid: 520ef25f4c1b6ca4b88a38c596e950de, type: 3}
  m_Name: Tolkien Names
  m_EditorClassIdentifier: 
  Names:
  - Alatar
  - Aldor
  - Aros
  - Baldor
  - Baran
  - Butterbur
  - Calembel
  - Caranthir
  - Celebrimbor
  - Dernhelm
  - Dorlas
  - Dwalin
  - Erestor
  - Estel
  - Faramir
  - Finarfin
  - Galador
  - Galadriel
  - Gram
  - Hador
  - Herumor
  - Huan
  - Idrill
  - Irmo
  - "K\xEDli"
  - Khamul
  - Lindir
  - Legolas
  - Mablung
  - Maglor
  - Malach
  - Nahar
  - Nessa
  - Ohtar
  - Oropher
  - Palantir
  - Quickbeam
  - Saeros
  - Shelob
  - Smaug
