%YAML 1.1
%TAG !u! tag:unity3d.com,2011:
--- !u!114 &11400000
MonoBehaviour:
  m_ObjectHideFlags: 0
  m_PrefabParentObject: {fileID: 0}
  m_PrefabInternal: {fileID: 0}
  m_GameObject: {fileID: 0}
  m_Enabled: 1
  m_EditorHideFlags: 0
  m_Script: {fileID: 11500000, guid: 19ea8ab8e3d8c4f47b155d6af05d9982, type: 3}
  m_Name: Level01_Pool_Recover_Rate
  m_EditorClassIdentifier: 
  Rate: 5
  TickRate: 3
  InfluenceGraph:
    serializedVersion: 2
    m_Curve:
    - time: 1.00069261
      value: 1.019912
      inSlope: .984135628
      outSlope: .984135628
      tangentMode: 10
    - time: 1.99969184
      value: 2.00306273
      inSlope: .996071219
      outSlope: .996071219
      tangentMode: 10
    - time: 2.99476528
      value: 3.00610352
      inSlope: 1.00800681
      outSlope: 1.00800681
      tangentMode: 10
    m_PreInfinity: 2
    m_PostInfinity: 2
