%YAML 1.1
%TAG !u! tag:unity3d.com,2011:
--- !u!114 &11400000
MonoBehaviour:
  m_ObjectHideFlags: 0
  m_PrefabParentObject: {fileID: 0}
  m_PrefabInternal: {fileID: 0}
  m_GameObject: {fileID: 0}
  m_Enabled: 1
  m_EditorHideFlags: 0
  m_Script: {fileID: 11500000, guid: 7b0149ea93b805e44a8515da45509f81, type: 3}
  m_Name: Level01_Pool_Data
  m_EditorClassIdentifier: 
  ResourcePool: 1600
  RecoverRate: {fileID: 11400000, guid: dab170d5a733ca64685ffaa6c72c772b, type: 2}
  DecayRate: {fileID: 11400000, guid: a529400619ba96742a357b37505bc936, type: 2}
  DepletedTimeToRecover: 6
