%YAML 1.1
%TAG !u! tag:unity3d.com,2011:
--- !u!114 &11400000
MonoBehaviour:
  m_ObjectHideFlags: 0
  m_PrefabParentObject: {fileID: 0}
  m_PrefabInternal: {fileID: 0}
  m_GameObject: {fileID: 0}
  m_Enabled: 1
  m_EditorHideFlags: 0
  m_Script: {fileID: 11500000, guid: 7b0149ea93b805e44a8515da45509f81, type: 3}
  m_Name: Level01_Pool_Data
  m_EditorClassIdentifier: 
  ResourcePool: 8000
  RecoverRate: {fileID: 11400000, guid: 6af05193589b95b4bbc3f1d5d72e9827, type: 2}
  DecayRate: {fileID: 11400000, guid: 3ed7ca8183047d742a9ecbf1a50a2fbd, type: 2}
  DepletedTimeToRecover: 4
