%YAML 1.1
%TAG !u! tag:unity3d.com,2011:
--- !u!114 &11400000
MonoBehaviour:
  m_ObjectHideFlags: 0
  m_PrefabParentObject: {fileID: 0}
  m_PrefabInternal: {fileID: 0}
  m_GameObject: {fileID: 0}
  m_Enabled: 1
  m_EditorHideFlags: 0
  m_Script: {fileID: 11500000, guid: 7b0149ea93b805e44a8515da45509f81, type: 3}
  m_Name: Level01_Pool_Data
  m_EditorClassIdentifier: 
  ResourcePool: 10000
  RecoverRate: {fileID: 11400000, guid: 9329ce24505946146b444817541926fa, type: 2}
  DecayRate: {fileID: 11400000, guid: 8072f16f6e24ec04883198aaba5e9801, type: 2}
  DepletedTimeToRecover: 4
